Phenology data - visualization and simple models
…
##          df      AIC
## fit_ft1   2 9141.098
## fit_fet1 22 7736.305

##          df      AIC
## fit_ft2   2 6130.218
## fit_fet2 22 5253.174

Then I get really different slopes for each transition. If I include effects on slope, the second transition is MUCH faster than the first transition. But this model cant accurately model the slopes- the overall slope is often negative, which is not actually possible biologically!

## # A tibble: 24 x 3
##      m1site   m1prov   m1slope
##       <dbl>    <dbl>     <dbl>
##  1 -0.0176  -0.0114  -0.00923 
##  2 -0.0176  -0.00510 -0.00295 
##  3 -0.0176  -0.00443 -0.00227 
##  4 -0.0176   0.00793  0.0101  
##  5 -0.0139  -0.0114  -0.00553 
##  6 -0.0139  -0.00510  0.000750
##  7 -0.0139  -0.00443  0.00143 
##  8 -0.0139   0.00793  0.0138  
##  9 -0.00148 -0.0114   0.00692 
## 10 -0.00148 -0.00510  0.0132  
## #  with 14 more rows
…
